{
    "tb_tcm_riscv_top": [
        "tb_tcm_riscv_top",
        "cvb2u",
        "module"
    ],
    "std": [
        "std",
        "reYIK",
        "module"
    ],
    "tcm_mem": [
        "tcm_mem",
        "DBb1S",
        "module"
    ],
    "riscv_decode_0000": [
        "riscv_decode_0000",
        "Y6SGY",
        "module"
    ],
    "icache": [
        "icache",
        "sbRVE",
        "module"
    ],
    "dcache_core_data_ram": [
        "dcache_core_data_ram",
        "fDyH7",
        "module"
    ],
    "riscv_trace_sim": [
        "riscv_trace_sim",
        "Qacj7",
        "module"
    ],
    "riscv_core": [
        "riscv_core",
        "yiGEQ",
        "module"
    ],
    "riscv_fetch": [
        "riscv_fetch",
        "ucxdY",
        "module"
    ],
    "riscv_csr": [
        "riscv_csr",
        "TEvF4",
        "module"
    ],
    "riscv_divider": [
        "riscv_divider",
        "CJAps",
        "module"
    ],
    "riscv_mmu_0000": [
        "riscv_mmu_0000",
        "WT7Yr",
        "module"
    ],
    "riscv_lsu": [
        "riscv_lsu",
        "ezcpV",
        "module"
    ],
    "riscv_multiplier": [
        "riscv_multiplier",
        "FBcGz",
        "module"
    ],
    "dport_axi": [
        "dport_axi",
        "Mvsdu",
        "module"
    ],
    "dport_mux": [
        "dport_mux",
        "aaYnL",
        "module"
    ],
    "...MASTER...": [
        "SIM",
        "amcQw",
        "module"
    ]
}