_C_b1247909_0 8c 0 78 0 0 6f6e6521 0 61642044 0 65205265 0 46696c 
_C_1433c037_0 8c 0 a0 0 0 3d25780a 0 64617461 0 25782c20 0 6573733d 0 61646472 
_C_f7c1ee49_0 8c 0 150 0 0 3d25780a 0 6f756e74 0 69745f63 0 68655f68 0 9636163 0 3d25782c 0 6f756e74 0 73735f63 0 61636365 0 6368655f 0 6361 
_C_fc831b9e_0 8c 0 150 0 0 3d25640a 0 6f756e74 0 69745f63 0 68655f68 0 9636163 0 3d25642c 0 6f756e74 0 73735f63 0 61636365 0 6368655f 0 6361 
_C_b83eb05d_0 8c 0 88 0 0 3d25780a 0 2c205043 0 5b25645d 0 79636c65 0 43 
_C_53c9af39_0 8c 0 130 0 0 21212120 0 61727420 0 6e205374 0 6174696f 0 696d756c 0 2e2e2053 0 626c652e 0 64697361 0 73657420 0 5265 
_C_78958319_0 8c 0 c8 0 0 74617274 0 75652073 0 6e717565 0 6f6e2065 0 75637469 0 6e737472 0 49 
_C_a5c777da_0 8c 0 38 0 0 2025780a 0 25783a 
_C_ce602389_0 8c 0 8 0 0 77 
_C_ed980e7f_0 8c 0 8 0 0 72 
_C_ed40aa28_0 8c 0 38 0 0 2025780a 0 25782c 
_C_c46a1707_0 8c 0 90 0 0 743d310a 0 2c206869 0 733d2578 0 64726573 0 6164 
_C_1f26ceaa_0 84 0 20 0 0 10000 
_C_825e6591_0 8c 0 b8 0 0 20253064 0 7469636b 0 6f636b20 0 6420636c 0 63757465 0 457865 
_C_6779863a_0 8c 0 90 0 0 2e747874 0 72616365 0 70635f74 0 6275675f 0 6465 
_C_852390a3_0 8c 0 b0 0 0 61727421 0 65207374 0 71756575 0 7420656e 0 71756573 0 5265 
_C_ec3ab239_0 8c 0 98 0 0 2e747874 0 6f756e74 0 69745f63 0 68655f68 0 636163 
_C_58fb514_0 8c 0 c0 0 0 2e747874 0 6f756e74 0 73735f63 0 745f6d69 0 655f6869 0 63616368 
_C_1e033f05_0 8c 0 70 0 0 2e646174 0 696e7374 0 7075745f 0 696e 
_C_98d1798b_0 84 0 4 0 0 0 
_C_69676ab3_0 8c 0 50 0 0 65736574 0 72652072 0 436f 
_C_96f8ebd1_0 8c 0 c0 0 0 4e554c4c 0 77617320 0 746f7220 0 73726970 0 5f646563 0 66696c65 
_C_52a2548c_0 8c 0 90 0 0 2e747874 0 74696f6e 0 65766963 0 6368655f 0 6361 
_C_1fdca360_0 84 0 8 0 0 0 
_C_15bb55ae_0 84 0 8 0 0 1 
_C_51e83f7f_0 8c 0 90 0 0 743d300a 0 2c206869 0 733d2578 0 64726573 0 6164 
_C_cec385b0_0 8c 0 a0 0 0 656e6421 0 65756520 0 656e7175 0 65737420 0 52657175 
_C_dfd13415_0 8c 0 58 0 0 3d25780a 0 72657373 0 616464 
_C_4d41dfb_0 8c 0 48 0 0 3d25780a 0 74617465 0 73 
_C_f2f8e03d_0 84 0 1f 0 0 0 
_C_757e0f88_0 8c 0 f0 0 0 2e747874 0 5f686974 0 73735f4e 0 64647265 0 73735f61 0 61636365 0 6368655f 0 6361 
_C_948f9f4c_0 8c 0 b0 0 0 2025640a 0 6f756e74 0 73735f63 0 61636365 0 6368655f 0 6361 
_C_5eddaffa_0 8c 0 18 0 0 25780a 
_C_16e2aa76_0 94 0 20 0 0 5 
_C_351a8780_0 94 0 20 0 0 0 
_C_3f7d714e_0 94 0 20 0 0 1 
_C_3f987111_0 84 0 20 0 0 20000 
