Cycle[          0], PC=00000000
Cycle[          1], PC=00000000
Cycle[          2], PC=00000000
Cycle[          3], PC=00000000
Cycle[          4], PC=00000000
Cycle[          5], PC=00000000
Cycle[          6], PC=00000004
Cycle[          7], PC=00000008
Cycle[          8], PC=0000000c
Cycle[          9], PC=00000010
Cycle[         10], PC=00000014
Cycle[         11], PC=00000018
Cycle[         12], PC=0000001c
Cycle[         13], PC=00000020
Cycle[         14], PC=00000024
Cycle[         15], PC=00000028
Cycle[         16], PC=0000002c
Cycle[         17], PC=00000030
Cycle[         18], PC=00000050
Cycle[         19], PC=00000054
Cycle[         20], PC=00000058
Cycle[         21], PC=0000005c
Cycle[         22], PC=00000060
Cycle[         23], PC=00000064
Cycle[         24], PC=00000068
Cycle[         25], PC=00000090
Cycle[         26], PC=00000094
Cycle[         27], PC=00000098
Cycle[         28], PC=0000009c
Cycle[         29], PC=000000a0
Cycle[         30], PC=000000a0
Cycle[         31], PC=000000a0
Cycle[         32], PC=000000a4
Cycle[         33], PC=000000a8
